\relax 
\citation{matlab}
\citation{microsoft}
\FN@pp@footnotehinttrue 
\@writefile{toc}{\contentsline {chapter}{\numberline {6}Results and Interpretation}{13}{chapter.6}}
\@writefile{lof}{\addvspace {10\p@ }}
\@writefile{lot}{\addvspace {10\p@ }}
\@writefile{lof}{\contentsline {figure}{\numberline {6.1}{\ignorespaces Accuracy rate of IMORL framework}}{13}{figure.6.1}}
\newlabel{acc_plot}{{6.1}{13}{Accuracy rate of IMORL framework\relax }{figure.6.1}{}}
\@writefile{brf}{\backcite{matlab}{{14}{6}{figure.6.1}}}
\@writefile{brf}{\backcite{microsoft}{{14}{6}{figure.6.1}}}
\@writefile{lof}{\contentsline {figure}{\numberline {6.2}{\ignorespaces Confusion Matrix for SVM}}{14}{figure.6.2}}
\newlabel{svm}{{6.2}{14}{Confusion Matrix for SVM\relax }{figure.6.2}{}}
\@writefile{lof}{\contentsline {figure}{\numberline {6.3}{\ignorespaces Confusion Matrix for kNN}}{15}{figure.6.3}}
\newlabel{kNN}{{6.3}{15}{Confusion Matrix for kNN\relax }{figure.6.3}{}}
\@writefile{lof}{\contentsline {figure}{\numberline {6.4}{\ignorespaces Confusion Matrix for Decision Tree}}{15}{figure.6.4}}
\newlabel{dectree}{{6.4}{15}{Confusion Matrix for Decision Tree\relax }{figure.6.4}{}}
\FN@pp@footnotehinttrue 
\@setckpt{Results/results}{
\setcounter{page}{16}
\setcounter{equation}{0}
\setcounter{enumi}{0}
\setcounter{enumii}{0}
\setcounter{enumiii}{0}
\setcounter{enumiv}{0}
\setcounter{footnote}{0}
\setcounter{mpfootnote}{0}
\setcounter{part}{0}
\setcounter{chapter}{6}
\setcounter{section}{0}
\setcounter{subsection}{0}
\setcounter{subsubsection}{0}
\setcounter{paragraph}{0}
\setcounter{subparagraph}{0}
\setcounter{figure}{4}
\setcounter{table}{0}
\setcounter{pp@next@reset}{1}
\setcounter{@fnserial}{0}
\setcounter{NAT@ctr}{0}
\setcounter{Item}{0}
\setcounter{Hfootnote}{0}
\setcounter{bookmark@seq@number}{17}
\setcounter{lips@count}{0}
\setcounter{subfigure}{0}
\setcounter{lofdepth}{1}
\setcounter{subtable}{0}
\setcounter{lotdepth}{1}
\setcounter{parentequation}{0}
\setcounter{float@type}{4}
\setcounter{section@level}{1}
}
