This is BibTeX, Version 0.99d (Web2C 2011)
Capacity: max_strings=35307, hash_size=35307, hash_prime=30011
The top-level auxiliary file: draft.aux
A level-1 auxiliary file: Abstract/abstract.aux
A level-1 auxiliary file: Introduction/introduction.aux
A level-1 auxiliary file: Prior/prior.aux
A level-1 auxiliary file: Methodology/methodology.aux
A level-1 auxiliary file: Implementation/implementation.aux
A level-1 auxiliary file: Results/results.aux
A level-1 auxiliary file: Tried/tried.aux
A level-1 auxiliary file: Conclusions/conclusions.aux
The style file: unsrt.bst
Database file #1: References/Ref.bib
You've used 4 entries,
            1791 wiz_defined-function locations,
            467 strings with 4106 characters,
and the built_in function-call counts, 507 in all, are:
= -- 36
> -- 21
< -- 0
+ -- 9
- -- 5
* -- 15
:= -- 78
add.period$ -- 8
call.type$ -- 4
change.case$ -- 2
chr.to.int$ -- 0
cite$ -- 4
duplicate$ -- 26
empty$ -- 65
format.name$ -- 5
if$ -- 117
int.to.chr$ -- 0
int.to.str$ -- 4
missing$ -- 2
newline$ -- 19
num.names$ -- 2
pop$ -- 18
preamble$ -- 1
purify$ -- 0
quote$ -- 0
skip$ -- 23
stack$ -- 0
substring$ -- 0
swap$ -- 4
text.length$ -- 0
text.prefix$ -- 0
top$ -- 0
type$ -- 0
warning$ -- 0
while$ -- 2
width$ -- 5
write$ -- 32
