\relax 
\FN@pp@footnotehinttrue 
\@writefile{toc}{\contentsline {chapter}{\numberline {4}Project Formulation, Setup and Methodology}{4}{chapter.4}}
\@writefile{lof}{\addvspace {10\p@ }}
\@writefile{lot}{\addvspace {10\p@ }}
\@writefile{toc}{\contentsline {section}{\numberline {4.1}IMORL framework}{4}{section.4.1}}
\@writefile{toc}{\contentsline {section}{\numberline {4.2}Histogram of Oriented Gradients}{6}{section.4.2}}
\@writefile{toc}{\contentsline {section}{\numberline {4.3}Support Vector Machine}{6}{section.4.3}}
\@writefile{toc}{\contentsline {section}{\numberline {4.4}Decision Trees}{7}{section.4.4}}
\@writefile{toc}{\contentsline {section}{\numberline {4.5}k-Nearest Neighbor}{7}{section.4.5}}
\@writefile{toc}{\contentsline {section}{\numberline {4.6}Methodology}{8}{section.4.6}}
\@writefile{lof}{\contentsline {figure}{\numberline {4.1}{\ignorespaces IMORL framework for Video Data}}{8}{figure.4.1}}
\newlabel{Fig:BD}{{4.1}{8}{IMORL framework for Video Data\relax }{figure.4.1}{}}
\@writefile{lof}{\contentsline {figure}{\numberline {4.2}{\ignorespaces Block Diagram of Multiple Object recognition system}}{9}{figure.4.2}}
\newlabel{Fig:BD1}{{4.2}{9}{Block Diagram of Multiple Object recognition system\relax }{figure.4.2}{}}
\FN@pp@footnotehinttrue 
\@setckpt{Methodology/methodology}{
\setcounter{page}{10}
\setcounter{equation}{11}
\setcounter{enumi}{0}
\setcounter{enumii}{0}
\setcounter{enumiii}{0}
\setcounter{enumiv}{0}
\setcounter{footnote}{0}
\setcounter{mpfootnote}{0}
\setcounter{part}{0}
\setcounter{chapter}{4}
\setcounter{section}{6}
\setcounter{subsection}{0}
\setcounter{subsubsection}{0}
\setcounter{paragraph}{0}
\setcounter{subparagraph}{0}
\setcounter{figure}{2}
\setcounter{table}{0}
\setcounter{pp@next@reset}{1}
\setcounter{@fnserial}{0}
\setcounter{NAT@ctr}{0}
\setcounter{Item}{0}
\setcounter{Hfootnote}{0}
\setcounter{bookmark@seq@number}{10}
\setcounter{lips@count}{0}
\setcounter{subfigure}{0}
\setcounter{lofdepth}{1}
\setcounter{subtable}{0}
\setcounter{lotdepth}{1}
\setcounter{parentequation}{0}
\setcounter{float@type}{4}
\setcounter{section@level}{1}
}
